3 3 
1.2 3.3 4.2 6.5 9.6 5.4 7.8 3.4 4.5 
3 3
1.6 6.5 8.4 4.7 8.5 9.3 7.9 5.4 4.6 
3 3
1.3 1.2 1.5 1.3 1.6 1.8
2.4 1.4 3.4 1.3 1.7 2.5
2.6 1.7 1.9 1.8 1.5 5.1
3 3
2.2 2.3 2.4 2.4 2.5 2.6
3.5 5.7 4.5 2.5 3.8 4.7
2.7 3.7 4.5 4.7 2.1 2.5

